{
    "name": "douglinhas",
    "idade": 19,
    "instrumento": "teclado",
    "banda favorita": "hillsong",
    "sonho": "trabalhar em uma multi nacional e morar fora",
    "cor": "azul",
    "momento favorito": "ir à Igreja",
    "stack": "PHP",
    "especialização": "Machine Learning e Data Science"
}